UserName,Order_Number,Material,Amount,tax,Internal_CV,qv_price,taxableAmount,orderType,basePrice
autoConsldsanb@perftest.com,1259623098,PRKT002,395,39.5,300,300,395,CONSULTANTENROLLORDER,395
autoConswqluot@perftest.com,1259616116,PRKT002,395,39.5,300,300,395,CONSULTANTENROLLORDER,395
autoConsfktyal@perftest.com,1259622090,PRKT002,395,39.5,300,300,395,CONSULTANTENROLLORDER,395
autoConsyrhvhc@perftest.com,1259622094,PRKT002,395,39.5,300,300,395,CONSULTANTENROLLORDER,395
autoConsincwug@perftest.com,1259622100,PRKT002,395,39.5,300,300,395,CONSULTANTENROLLORDER,395
autoConskydkll@perftest.com,1259622102,PRKT002,395,39.5,300,300,395,CONSULTANTENROLLORDER,395
autoConsypkvkm@perftest.com,1259622104,PRKT002,395,39.5,300,300,395,CONSULTANTENROLLORDER,395
autoConsfyshqo@perftest.com,1259621102,PRKT002,395,39.5,300,300,395,CONSULTANTENROLLORDER,395
autoConshskanz@perftest.com,1259621104,PRKT002,395,39.5,300,300,395,CONSULTANTENROLLORDER,395
autoConshcreur@perftest.com,1259621106,PRKT002,395,39.5,300,300,395,CONSULTANTENROLLORDER,395
autoConspkimvb@perftest.com,1259621108,PRKT002,395,39.5,300,300,395,CONSULTANTENROLLORDER,395
autoConsasxfix@perftest.com,1259618124,PRKT002,395,39.5,300,300,395,CONSULTANTENROLLORDER,395
autoConsabopvd@perftest.com,1259618126,PRKT002,395,39.5,300,300,395,CONSULTANTENROLLORDER,395
autoConsyqruxr@perftest.com,1259618128,PRKT002,395,39.5,300,300,395,CONSULTANTENROLLORDER,395
autoConslimeyb@perftest.com,1259618130,PRKT002,395,39.5,300,300,395,CONSULTANTENROLLORDER,395
autoConsszzrps@perftest.com,1259619115,PRKT002,395,39.5,300,300,395,CONSULTANTENROLLORDER,395
autoConsiucrok@perftest.com,1259619117,PRKT002,395,39.5,300,300,395,CONSULTANTENROLLORDER,395
autoConsqiwuav@perftest.com,1259619119,PRKT002,395,39.5,300,300,395,CONSULTANTENROLLORDER,395
autoConsfdgezd@perftest.com,1259619121,PRKT002,395,39.5,300,300,395,CONSULTANTENROLLORDER,395
autoConstnsjyb@perftest.com,1259618146,PRKT002,395,39.5,300,300,395,CONSULTANTENROLLORDER,395
autoConsrtctjs@perftest.com,1259618148,PRKT002,395,39.5,300,300,395,CONSULTANTENROLLORDER,395
autoConsqezxlj@perftest.com,1259618150,PRKT002,395,39.5,300,300,395,CONSULTANTENROLLORDER,395
autoConsyhcqdv@perftest.com,1259618152,PRKT002,395,39.5,300,300,395,CONSULTANTENROLLORDER,395
autoConsiivzxg@perftest.com,1259615083,PRKT002,395,39.5,300,300,395,CONSULTANTENROLLORDER,395
autoConsskiuln@perftest.com,1259620131,PRKT002,395,39.5,300,300,395,CONSULTANTENROLLORDER,395
autoConsjfshab@perftest.com,1259615112,PRKT002,395,39.5,300,300,395,CONSULTANTENROLLORDER,395
autoConsselmyn@perftest.com,1259620137,PRKT002,395,39.5,300,300,395,CONSULTANTENROLLORDER,395
autoConspjfiml@perftest.com,1259616135,PRKT002,395,39.5,300,300,395,CONSULTANTENROLLORDER,395
autoConshvgfwe@perftest.com,1259619161,PRKT002,395,39.5,300,300,395,CONSULTANTENROLLORDER,395
autoConstmsjlz@perftest.com,1259618203,PRKT002,395,39.5,300,300,395,CONSULTANTENROLLORDER,395
autoConslgihlw@perftest.com,1259617156,PRKT002,395,39.5,300,300,395,CONSULTANTENROLLORDER,395
autoConsujymqz@perftest.com,1259615129,PRKT002,395,39.5,300,300,395,CONSULTANTENROLLORDER,395
