UserName,Order_Number,Material,Amount,tax,Internal_CV,OrderSV,taxableAmount,orderType,basePrice,OrderStatus,Carrier,TrackingNumber
UserName,Order_Number,Material,Amount,tax,Internal_CV,OrderSV,taxableAmount,orderType,basePrice,OrderStatus,Carrier,TrackingNumber
UserName,Order_Number,Material,Amount,tax,Internal_CV,OrderSV,taxableAmount,orderType,basePrice,OrderStatus,Carrier,TrackingNumber
UserName,Order_Number,Material,Amount,tax,Internal_CV,OrderSV,taxableAmount,orderType,basePrice,OrderStatus,Carrier,TrackingNumber
UserName,Order_Number,Material,Amount,tax,Internal_CV,OrderSV,taxableAmount,orderType,basePrice,OrderStatus,Carrier,TrackingNumber
UserName,Order_Number,Material,Amount,tax,Internal_CV,OrderSV,taxableAmount,orderType,basePrice,OrderStatus,Carrier,TrackingNumber
UserName,Order_Number,Material,Amount,tax,Internal_CV,OrderSV,taxableAmount,orderType,basePrice,OrderStatus,Carrier,TrackingNumber
UserName,Order_Number,Material,Amount,tax,Internal_CV,OrderSV,taxableAmount,orderType,basePrice,OrderStatus,Carrier,TrackingNumber
UserName,Order_Number,Material,Amount,tax,Internal_CV,OrderSV,taxableAmount,orderType,basePrice,OrderStatus,Carrier,TrackingNumber
UserName,Order_Number,Material,Amount,tax,Internal_CV,OrderSV,taxableAmount,orderType,basePrice,OrderStatus,Carrier,TrackingNumber
UserName,Order_Number,Material,Amount,tax,Internal_CV,OrderSV,taxableAmount,orderType,basePrice,OrderStatus,Carrier,TrackingNumber
UserName,Order_Number,Material,Amount,tax,Internal_CV,OrderSV,taxableAmount,orderType,basePrice,OrderStatus,Carrier,TrackingNumber
UserName,Order_Number,Material,Amount,tax,Internal_CV,OrderSV,taxableAmount,orderType,basePrice,OrderStatus,Carrier,TrackingNumber
UserName,Order_Number,Material,Amount,tax,Internal_CV,OrderSV,taxableAmount,orderType,basePrice,OrderStatus,Carrier,TrackingNumber
UserName,Order_Number,Material,Amount,tax,Internal_CV,OrderSV,taxableAmount,orderType,basePrice,OrderStatus,Carrier,TrackingNumber
UserName,Order_Number,Material,Amount,tax,Internal_CV,OrderSV,taxableAmount,orderType,basePrice,OrderStatus,Carrier,TrackingNumber
UserName,Order_Number,Material,Amount,tax,Internal_CV,OrderSV,taxableAmount,orderType,basePrice,OrderStatus,Carrier,TrackingNumber
UserName,Order_Number,Material,Amount,tax,Internal_CV,OrderSV,taxableAmount,orderType,basePrice,OrderStatus,Carrier,TrackingNumber
UserName,Order_Number,Material,Amount,tax,Internal_CV,OrderSV,taxableAmount,orderType,basePrice,OrderStatus,Carrier,TrackingNumber
UserName,Order_Number,Material,Amount,tax,Internal_CV,OrderSV,taxableAmount,orderType,basePrice,OrderStatus,Carrier,TrackingNumber
UserName,Order_Number,Material,Amount,tax,Internal_CV,OrderSV,taxableAmount,orderType,basePrice,OrderStatus,Carrier,TrackingNumber
UserName,Order_Number,Material,Amount,tax,Internal_CV,OrderSV,taxableAmount,orderType,basePrice,OrderStatus,Carrier,TrackingNumber
UserName,Order_Number,Material,Amount,tax,Internal_CV,OrderSV,taxableAmount,orderType,basePrice,OrderStatus,Carrier,TrackingNumber
UserName,Order_Number,Material,Amount,tax,Internal_CV,OrderSV,taxableAmount,orderType,basePrice,OrderStatus,Carrier,TrackingNumber
UserName,Order_Number,Material,Amount,tax,Internal_CV,OrderSV,taxableAmount,orderType,basePrice,OrderStatus,Carrier,TrackingNumber
UserName,Order_Number,Material,Amount,tax,Internal_CV,OrderSV,taxableAmount,orderType,basePrice,OrderStatus,Carrier,TrackingNumber
UserName,Order_Number,Material,Amount,tax,Internal_CV,OrderSV,taxableAmount,orderType,basePrice,OrderStatus,Carrier,TrackingNumber
UserName,Order_Number,Material,Amount,tax,Internal_CV,OrderSV,taxableAmount,orderType,basePrice,OrderStatus,Carrier,TrackingNumber
UserName,Order_Number,Material,Amount,tax,Internal_CV,OrderSV,taxableAmount,orderType,basePrice,OrderStatus,Carrier,TrackingNumber
UserName,Order_Number,Material,Amount,tax,Internal_CV,OrderSV,taxableAmount,orderType,basePrice,OrderStatus,Carrier,TrackingNumber
UserName,Order_Number,Material,Amount,tax,Internal_CV,OrderSV,taxableAmount,orderType,basePrice,OrderStatus,Carrier,TrackingNumber
UserName,Order_Number,Material,Amount,tax,Internal_CV,OrderSV,taxableAmount,orderType,basePrice,OrderStatus,Carrier,TrackingNumber
UserName,Order_Number,Material,Amount,tax,Internal_CV,OrderSV,taxableAmount,orderType,basePrice,OrderStatus,Carrier,TrackingNumber
UserName,Order_Number,Material,Amount,tax,Internal_CV,OrderSV,taxableAmount,orderType,basePrice,OrderStatus,Carrier,TrackingNumber
UserName,Order_Number,Material,Amount,tax,Internal_CV,OrderSV,taxableAmount,orderType,basePrice,OrderStatus,Carrier,TrackingNumber
UserName,Order_Number,Material,Amount,tax,Internal_CV,OrderSV,taxableAmount,orderType,basePrice,OrderStatus,Carrier,TrackingNumber
UserName,Order_Number,Material,Amount,tax,Internal_CV,OrderSV,taxableAmount,orderType,basePrice,OrderStatus,Carrier,TrackingNumber
UserName,Order_Number,Material,Amount,tax,Internal_CV,OrderSV,taxableAmount,orderType,basePrice,OrderStatus,Carrier,TrackingNumber
UserName,Order_Number,Material,Amount,tax,Internal_CV,OrderSV,taxableAmount,orderType,basePrice,OrderStatus,Carrier,TrackingNumber
UserName,Order_Number,Material,Amount,tax,Internal_CV,OrderSV,taxableAmount,orderType,basePrice,OrderStatus,Carrier,TrackingNumber
UserName,Order_Number,Material,Amount,tax,Internal_CV,OrderSV,taxableAmount,orderType,basePrice,OrderStatus,Carrier,TrackingNumber
UserName,Order_Number,Material,Amount,tax,Internal_CV,OrderSV,taxableAmount,orderType,basePrice,OrderStatus,Carrier,TrackingNumber
UserName,Order_Number,Material,Amount,tax,Internal_CV,OrderSV,taxableAmount,orderType,basePrice,OrderStatus,Carrier,TrackingNumber
UserName,Order_Number,Material,Amount,tax,Internal_CV,OrderSV,taxableAmount,orderType,basePrice,OrderStatus,Carrier,TrackingNumber
UserName,Order_Number,Material,Amount,tax,Internal_CV,OrderSV,taxableAmount,orderType,basePrice,OrderStatus,Carrier,TrackingNumber
UserName,Order_Number,Material,Amount,tax,Internal_CV,OrderSV,taxableAmount,orderType,basePrice,OrderStatus,Carrier,TrackingNumber
UserName,Order_Number,Material,Amount,tax,Internal_CV,OrderSV,taxableAmount,orderType,basePrice,OrderStatus,Carrier,TrackingNumber
UserName,Order_Number,Material,Amount,tax,Internal_CV,OrderSV,taxableAmount,orderType,basePrice,OrderStatus,Carrier,TrackingNumber
UserName,Order_Number,Material,Amount,tax,Internal_CV,OrderSV,taxableAmount,orderType,basePrice,OrderStatus,Carrier,TrackingNumber
