*************************Process_Inbound_IDocs_And_Process_SalesOrder*************************
Step-1	Done	Began of Read Data from CSV file	2:31:54 AM
Step-2	Done	Began of ProcessInbound IDocs And Process SalesOrder	2:31:54 AM
Step-3	Done	Began of SAP Login	2:31:54 AM
